# This table is dedicated to Zenlayer subnets which is activly
# used for illigal scanning, censys and other things.
#+internet-census org

# If you still want to receive emails from the hosts below,
# block all ports except port TCP 25

# 23.90.128.0 - 23.90.191.255 # US-ZENLAYER ZL-IAD-UCLOUD-0071
23.90.128.0/18

# 23.236.112.0 - 23.236.127.255 # ZL-NET-001
23.236.112.0/20

# 23.248.160.0 - 23.248.191.255 # ZL-NET-009
23.248.160.0/19

# 23.251.96.0 - 23.251.127.255 # ZL-ECN-001
23.251.96.0/19 

# 45.43.32.0 - 45.43.63.255 # ZEN-X-002
45.43.32.0/19

# 45.40.48.0 - 45.40.63.255 # ZEN-X-001
45.40.48.0/20

# 104.218.160.0 - 104.218.167.255 # ZEN-X-003
104.218.160.0/21

# 107.150.96.0 - 107.150.127.255 # ZL-LAX3-002
107.150.96.0/19

# 107.151.128.0 - 107.151.191.255 #ZL-NET-008
107.151.128.0/18

# 128.1.0.0 - 128.1.255.255 # ZL-LAX3-003
128.1.0.0/16

# 128.14.0.0 - 128.14.255.255 #ZL-LAX3-004
128.14.0.0/16

# 162.221.192.0 - 162.221.199.255 # ZL-NET-007
162.221.192.0/21

# 193.118.32.0 - 193.118.63.255 # US-ZENLAYER-940210
193.118.32.0/19
