#137.226.113.
137.226.113.1/32 # c4k-i4-1-vl341.comsys.rwth-aachen.de.
137.226.113.2/32 # tor.informatik.rwth-aachen.de.
137.226.113.3/32 # atlasprobe.informatik.rwth-aachen.de.
137.226.113.4/32 # internetmeasurements.informatik.rwth-aachen.de.
137.226.113.5/32 # showcage.informatik.rwth-aachen.de.
137.226.113.6/32 # jodelforschung.comsys.rwth-aachen.de.
137.226.113.8/32 # researchscan1.comsys.rwth-aachen.de.
137.226.113.9/32 # researchscan2.comsys.rwth-aachen.de.
137.226.113.10/32 # researchscan3.comsys.rwth-aachen.de.
137.226.113.11/32 # researchscan4.comsys.rwth-aachen.de.
137.226.113.12/32 # researchscan5.comsys.rwth-aachen.de.
137.226.113.13/32 # researchscan6.comsys.rwth-aachen.de.
137.226.113.14/32 # researchscan7.comsys.rwth-aachen.de.
137.226.113.15/32 # researchscan8.comsys.rwth-aachen.de.
137.226.113.16/32 # researchscan9.comsys.rwth-aachen.de.
137.226.113.17/32 # researchscan10.comsys.rwth-aachen.de.
137.226.113.18/32 # researchscan11.comsys.rwth-aachen.de.
137.226.113.19/32 # researchscan12.comsys.rwth-aachen.de.
137.226.113.20/32 # researchscan13.comsys.rwth-aachen.de.
137.226.113.21/32 # researchscan14.comsys.rwth-aachen.de.
137.226.113.22/32 # researchscan15.comsys.rwth-aachen.de.
137.226.113.23/32 # researchscan16.comsys.rwth-aachen.de.
137.226.113.24/32 # researchscan17.comsys.rwth-aachen.de.
137.226.113.25/32 # researchscan18.comsys.rwth-aachen.de.
137.226.113.26/32 # researchscan19.comsys.rwth-aachen.de.
137.226.113.27/32 # researchscan20.comsys.rwth-aachen.de.
137.226.113.28/32 # researchscan21.comsys.rwth-aachen.de.
137.226.113.29/32 # vega.comsys.rwth-aachen.de.
137.226.113.30/32 # researchscan22.comsys.rwth-aachen.de.
137.226.113.31/32 # researchscan23.comsys.rwth-aachen.de.
137.226.113.32/32 # researchscan24.comsys.rwth-aachen.de.
137.226.113.33/32 # researchscan25.comsys.rwth-aachen.de.
137.226.113.34/32 # researchscan26.comsys.rwth-aachen.de.
137.226.113.35/32 # researchscan27.comsys.rwth-aachen.de.
137.226.113.36/32 # researchscan28.comsys.rwth-aachen.de.
137.226.113.37/32 # researchscan29.comsys.rwth-aachen.de.
137.226.113.38/32 # researchscan30.comsys.rwth-aachen.de.
137.226.113.39/32 # researchscan31.comsys.rwth-aachen.de.
137.226.113.40/32 # researchscan32.comsys.rwth-aachen.de.
137.226.113.41/32 # researchscan33.comsys.rwth-aachen.de.
137.226.113.42/32 # researchscan34.comsys.rwth-aachen.de.
137.226.113.43/32 # researchscan35.comsys.rwth-aachen.de.
137.226.113.44/32 # researchscan36.comsys.rwth-aachen.de.
137.226.113.58/32 # elara.informatik.rwth-aachen.de.
137.226.113.60/32 # weed.informatik.rwth-aachen.de.
137.226.113.61/32 # herb.informatik.rwth-aachen.de.
137.226.113.62/32 # dope.informatik.rwth-aachen.de.
137.226.113.65/32 # n7k-ww10-2-hs313.noc.rwth-aachen.de.
137.226.113.66/32 # n7k-ww10-2-vl313.noc.rwth-aachen.de.
137.226.113.67/32 # n7k-sw23-2-vl313.noc.rwth-aachen.de.
